{
   
    "result":{
        "page":1,
        "page_size":10,
        "total_count":60,
        "page_count":6,
        "item_list":[{
            "id":1,
            "name":"@city",
            "mode":1,
            "op_mode":1,
            "franchisee_id":77,
            "auth_mode":"松果自营",
            "city_admins":[
                {
                    "user_name":"@canm",
                    "user_id":6
                },
                {
                    "user_name":"@ccck",
                    "user_id":4
                }
            ],
            "open_time":"2022-1-1",
            "sys_user_name":"@cname",
            "update_time":162323223

        } ,
        {
            "id":2,
            "name":"@city",
            "mode":1,
            "op_mode":1,
            "franchisee_id":77,
            "auth_mode":"JD自营",
            "city_admins":[
                {
                    "user_name":"@canm",
                    "user_id":8
                },
                {
                    "user_name":"@ccck",
                    "user_id":7
                }
            ],
            "open_time":"2022-2-2",
            "sys_user_name":"@cname",
            "update_time":162323223123

        },
        {
            "id":2,
            "name":"city",
            "mode":1,
            "op_mode":1,
            "franchisee_id":77,
            "auth_mode":"苏宁自营",
            "city_admins":[
                {
                    "user_name":"@canm",
                    "user_id":8
                },
                {
                    "user_name":"@ccck",
                    "user_id":7
                }
            ],
            "open_time":"2022-3-3",
            "sys_user_name":"@cname",
            "update_time":162323223123

        },
        {
            "id":2,
            "name":"city",
            "mode":1,
            "op_mode":1,
            "franchisee_id":77,
            "auth_mode":"苏宁自营",
            "city_admins":[
                {
                    "user_name":"@canm",
                    "user_id":8
                },
                {
                    "user_name":"@ccck",
                    "user_id":7
                }
            ],
            "open_time":"2022-3-3",
            "sys_user_name":"@cname",
            "update_time":162323223123

        },
        {
            "id":2,
            "name":"city",
            "mode":1,
            "op_mode":1,
            "franchisee_id":77,
            "auth_mode":"苏宁自营",
            "city_admins":[
                {
                    "user_name":"@canm",
                    "user_id":8
                },
                {
                    "user_name":"@ccck",
                    "user_id":7
                }
            ],
            "open_time":"2022-3-3",
            "sys_user_name":"@cname",
            "update_time":162323223123

        },
        {
            "id":2,
            "name":"city",
            "mode":1,
            "op_mode":1,
            "franchisee_id":77,
            "auth_mode":"苏宁自营",
            "city_admins":[
                {
                    "user_name":"@canm",
                    "user_id":8
                },
                {
                    "user_name":"@ccck",
                    "user_id":7
                }
            ],
            "open_time":"2022-3-3",
            "sys_user_name":"@cname",
            "update_time":162323223123

        },
        {
            "id":2,
            "name":"city",
            "mode":1,
            "op_mode":1,
            "franchisee_id":77,
            "auth_mode":"苏宁自营",
            "city_admins":[
                {
                    "user_name":"@canm",
                    "user_id":8
                },
                {
                    "user_name":"@ccck",
                    "user_id":7
                }
            ],
            "open_time":"2022-3-3",
            "sys_user_name":"@cname",
            "update_time":162323223123

        },
        {
            "id":2,
            "name":"city",
            "mode":1,
            "op_mode":1,
            "franchisee_id":77,
            "auth_mode":"苏宁自营",
            "city_admins":[
                {
                    "user_name":"@canm",
                    "user_id":8
                },
                {
                    "user_name":"@ccck",
                    "user_id":7
                }
            ],
            "open_time":"2022-3-3",
            "sys_user_name":"@cname",
            "update_time":162323223123

        },
        {
            "id":2,
            "name":"city",
            "mode":1,
            "op_mode":1,
            "franchisee_id":77,
            "auth_mode":"苏宁自营",
            "city_admins":[
                {
                    "user_name":"@canm",
                    "user_id":8
                },
                {
                    "user_name":"@ccck",
                    "user_id":7
                }
            ],
            "open_time":"2022-3-3",
            "sys_user_name":"@cname",
            "update_time":162323223123

        }
        ]
    }
}