{
  "code": 0,
  "result": {
    "page": 1,
    "page_size": 10,
    "total_count": 25,
    "page_count": 3,
    "item_list": [{
      "id": 1,
      "role_name": "管理人员",
      "status": 1,
      "authorize_user_name": "@cname",
      "authorize_time": 1521270166000,
      "create_time": 1499305790000,
      "menus": ["/home", "/ui/buttons", "/ui/modals", "/ui/loadings", "/ui/notification", "/ui/messages", "/ui/tabs", "/ui/gallery", "/ui/carousel", "/ui"]
    },
    {
      "id": 2,
      "role_name": "营销人员",
      "status": 2,
      "authorize_user_name": "@cname",
      "authorize_time": 1521270166000,
      "create_time": 1499305790000,
      "menus": ["/home", "/ui/buttons", "/ui/modals", "/ui/loadings", "/ui/notification", "/ui/messages", "/ui/tabs", "/ui/gallery", "/ui/carousel", "/ui"]
    },
    {
      "id": 3,
      "role_name": "营销人员",
      "status": 3,
      "authorize_user_name": "@cname",
      "authorize_time": 1521270166000,
      "create_time": 1499305790000,
      "menus": ["/home", "/ui/buttons", "/ui/modals", "/ui/loadings", "/ui/notification", "/ui/messages", "/ui/tabs", "/ui/gallery", "/ui/carousel", "/ui"]
    },
    {
      "id": 4,
      "role_name": "管理人员",
      "status": 1,
      "authorize_user_name": "@cname",
      "authorize_time": 1521270166000,
      "create_time": 1499305790000,
      "menus": ["/home", "/ui/buttons", "/ui/modals", "/ui/loadings", "/ui/notification", "/ui/messages", "/ui/tabs", "/ui/gallery", "/ui/carousel", "/ui"]
    }
  ]
  }
}